testbench_contador.vcd
$date
	Wed Oct 29 11:15:40 2025
$end
$version
	Icarus Verilog
$end
$timescale
	1ps
$end
$scope module testbench_contador $end
$var wire 8 ! regB_value [7:0] $end
$var wire 8 " regA_value [7:0] $end
$var wire 8 # pc_value [7:0] $end
$var wire 8 $ alu_result [7:0] $end
$var reg 1 % clk $end
$var reg 8 & previous_A [7:0] $end
$var integer 32 ' cycle_count [31:0] $end
$var integer 32 ( decrement_count [31:0] $end
$scope module cpu_inst $end
$var wire 1 % clk $end
$var wire 8 ) regB_out_bus [7:0] $end
$var wire 1 * regB_load $end
$var wire 8 + regA_out_bus [7:0] $end
$var wire 1 , regA_load $end
$var wire 8 - pc_out_bus [7:0] $end
$var wire 7 . opcode [6:0] $end
$var wire 2 / muxB_sel [1:0] $end
$var wire 8 0 muxB_out_bus [7:0] $end
$var wire 1 1 muxA_sel $end
$var wire 8 2 muxA_out_bus [7:0] $end
$var wire 1 3 mem_write $end
$var wire 8 4 mem_data_out [7:0] $end
$var wire 8 5 mem_address [7:0] $end
$var wire 8 6 literal [7:0] $end
$var wire 4 7 jump_cond [3:0] $end
$var wire 1 8 is_jump $end
$var wire 15 9 im_out_bus [14:0] $end
$var wire 1 : flags_write $end
$var wire 8 ; alu_out_bus [7:0] $end
$var wire 4 < alu_op [3:0] $end
$var wire 1 = addr_sel $end
$scope module ALU $end
$var wire 4 > s [3:0] $end
$var wire 8 ? b [7:0] $end
$var wire 8 @ a [7:0] $end
$var reg 8 A out [7:0] $end
$upscope $end
$scope module CU $end
$var wire 7 B opcode [6:0] $end
$var reg 1 = addr_sel $end
$var reg 4 C alu_op [3:0] $end
$var reg 1 : flags_write $end
$var reg 1 8 is_jump $end
$var reg 4 D jump_cond [3:0] $end
$var reg 1 3 mem_write $end
$var reg 1 1 muxA_sel $end
$var reg 2 E muxB_sel [1:0] $end
$var reg 1 , regA_load $end
$var reg 1 * regB_load $end
$upscope $end
$scope module DM $end
$var wire 1 % clk $end
$var wire 1 3 write_enable $end
$var wire 8 F data_in [7:0] $end
$var wire 8 G address [7:0] $end
$var reg 8 H data_out [7:0] $end
$var integer 32 I i [31:0] $end
$upscope $end
$scope module IM $end
$var wire 8 J address [7:0] $end
$var reg 15 K out [14:0] $end
$var integer 32 L i [31:0] $end
$upscope $end
$scope module PC $end
$var wire 1 % clk $end
$var wire 1 8 is_jump $end
$var wire 4 M jump_cond [3:0] $end
$var wire 8 N target_addr [7:0] $end
$var wire 8 O regA_value [7:0] $end
$var reg 8 P pc [7:0] $end
$upscope $end
$scope module addr_mux $end
$var wire 8 Q literal [7:0] $end
$var wire 1 = sel $end
$var wire 8 R regB [7:0] $end
$var reg 8 S address [7:0] $end
$upscope $end
$scope module muxA_inst $end
$var wire 1 1 sel $end
$var wire 8 T regB [7:0] $end
$var wire 8 U regA [7:0] $end
$var wire 8 V out [7:0] $end
$upscope $end
$scope module muxB_inst $end
$var wire 8 W literal [7:0] $end
$var wire 8 X mem_data [7:0] $end
$var wire 2 Y sel [1:0] $end
$var wire 8 Z regB [7:0] $end
$var wire 8 [ out [7:0] $end
$upscope $end
$scope module regA $end
$var wire 1 % clk $end
$var wire 8 \ data [7:0] $end
$var wire 1 , load $end
$var reg 8 ] out [7:0] $end
$upscope $end
$scope module regB $end
$var wire 1 % clk $end
$var wire 8 ^ data [7:0] $end
$var wire 1 * load $end
$var reg 8 _ out [7:0] $end
$upscope $end
$upscope $end
$scope begin $unm_blk_9 $end
$var integer 32 ` test_passed [31:0] $end
$upscope $end
$upscope $end
$scope module testbench_contador $end
$scope module cpu_inst $end
$scope module ALU $end
$upscope $end
$scope module CU $end
$upscope $end
$scope module DM $end
$upscope $end
$scope module IM $end
$upscope $end
$scope module PC $end
$upscope $end
$scope module addr_mux $end
$upscope $end
$scope module muxA_inst $end
$upscope $end
$scope module muxB_inst $end
$upscope $end
$scope module regA $end
$upscope $end
$scope module regB $end
$upscope $end
$upscope $end
$upscope $end
$enddefinitions $end
$comment Show the parameter values. $end
$dumpall
$end
#0
$dumpvars
b1 `
b0 _
b1111 ^
b0 ]
b1111 \
b1111 [
b0 Z
b1 Y
b0 X
b1111 W
b0 V
b0 U
b0 T
b1111 S
b0 R
b1111 Q
b0 P
b0 O
b1111 N
b0 M
b10000 L
b1000001111 K
b0 J
b100000000 I
b0 H
b1111 G
b0 F
b1 E
b0 D
b1001 C
b10 B
b1111 A
b0 @
b1111 ?
b1001 >
0=
b1001 <
b1111 ;
0:
b1000001111 9
08
b0 7
b1111 6
b1111 5
b0 4
03
b0 2
01
b1111 0
b1 /
b10 .
b0 -
1,
b0 +
0*
b0 )
b0 (
b0 '
b0 &
0%
b1111 $
b0 #
b0 "
b0 !
$end
#5000
b0 $
b0 ;
b0 A
b0 \
b0 ^
b0 0
b0 ?
b0 [
b0 5
b0 G
b0 S
1*
0,
b1 /
b1 E
b1 Y
b1001 <
b1001 >
b1001 C
b0 6
b0 N
b0 Q
b0 W
b11 .
b11 B
b1100000000 9
b1100000000 K
b1111 2
b1111 @
b1111 F
b1111 V
b1 #
b1 -
b1 J
b1 P
b1111 "
b1111 +
b1111 O
b1111 U
b1111 ]
1%
#6000
b1 '
#10000
0%
#15000
1:
0*
b0 /
b0 E
b0 Y
b1111 <
b1111 >
b1111 C
b1001101 .
b1001101 B
b100110100000000 9
b100110100000000 K
b10 #
b10 -
b10 J
b10 P
1%
#16000
b10 '
#20000
0%
#25000
b1111 $
b1111 ;
b1111 A
b1111 \
b1111 ^
b110 5
b110 G
b110 S
b1 7
b1 D
b1 M
18
0:
b0 <
b0 >
b0 C
b110 6
b110 N
b110 Q
b110 W
b1010100 .
b1010100 B
b101010000000110 9
b101010000000110 K
b11 #
b11 -
b11 J
b11 P
1%
#26000
b11 '
b1111 &
#30000
0%
#35000
b1110 $
b1110 ;
b1110 A
b1110 \
b1110 ^
b1 0
b1 ?
b1 [
b1 5
b1 G
b1 S
1,
b1 /
b1 E
b1 Y
b1 <
b1 >
b1 C
b0 7
b0 D
b0 M
08
b1 6
b1 N
b1 Q
b1 W
b1010 .
b1010 B
b101000000001 9
b101000000001 K
b100 #
b100 -
b100 J
b100 P
1%
#36000
b100 '
#40000
0%
#45000
b0 0
b0 ?
b0 [
b1111 7
b1111 D
b1111 M
18
0,
b0 /
b0 E
b0 Y
b0 <
b0 >
b0 C
b1010011 .
b1010011 B
b1110 $
b1110 ;
b1110 A
b1110 \
b1110 ^
b101001100000001 9
b101001100000001 K
b1110 2
b1110 @
b1110 F
b1110 V
b101 #
b101 -
b101 J
b101 P
b1110 "
b1110 +
b1110 O
b1110 U
b1110 ]
1%
#46000
b101 '
b1110 &
b1 (
#50000
0%
#55000
b0 $
b0 ;
b0 A
b0 \
b0 ^
b0 5
b0 G
b0 S
1*
b1 /
b1 E
b1 Y
b1001 <
b1001 >
b1001 C
b0 7
b0 D
b0 M
08
b0 6
b0 N
b0 Q
b0 W
b11 .
b11 B
b1100000000 9
b1100000000 K
b1 #
b1 -
b1 J
b1 P
1%
#56000
b110 '
#60000
0%
#65000
1:
0*
b0 /
b0 E
b0 Y
b1111 <
b1111 >
b1111 C
b1001101 .
b1001101 B
b100110100000000 9
b100110100000000 K
b10 #
b10 -
b10 J
b10 P
1%
#66000
b111 '
#70000
0%
#75000
b1110 $
b1110 ;
b1110 A
b1110 \
b1110 ^
b110 5
b110 G
b110 S
b1 7
b1 D
b1 M
18
0:
b0 <
b0 >
b0 C
b110 6
b110 N
b110 Q
b110 W
b1010100 .
b1010100 B
b101010000000110 9
b101010000000110 K
b11 #
b11 -
b11 J
b11 P
1%
#76000
b1000 '
#80000
0%
#85000
b1101 $
b1101 ;
b1101 A
b1101 \
b1101 ^
b1 0
b1 ?
b1 [
b1 5
b1 G
b1 S
1,
b1 /
b1 E
b1 Y
b1 <
b1 >
b1 C
b0 7
b0 D
b0 M
08
b1 6
b1 N
b1 Q
b1 W
b1010 .
b1010 B
b101000000001 9
b101000000001 K
b100 #
b100 -
b100 J
b100 P
1%
#86000
b1001 '
#90000
0%
#95000
b0 0
b0 ?
b0 [
b1111 7
b1111 D
b1111 M
18
0,
b0 /
b0 E
b0 Y
b0 <
b0 >
b0 C
b1101 $
b1101 ;
b1101 A
b1101 \
b1101 ^
b1010011 .
b1010011 B
b1101 2
b1101 @
b1101 F
b1101 V
b101001100000001 9
b101001100000001 K
b1101 "
b1101 +
b1101 O
b1101 U
b1101 ]
b101 #
b101 -
b101 J
b101 P
1%
#96000
b1101 &
b10 (
b1010 '
#100000
0%
#105000
b0 $
b0 ;
b0 A
b0 \
b0 ^
b0 5
b0 G
b0 S
1*
b1 /
b1 E
b1 Y
b1001 <
b1001 >
b1001 C
b0 7
b0 D
b0 M
08
b0 6
b0 N
b0 Q
b0 W
b11 .
b11 B
b1100000000 9
b1100000000 K
b1 #
b1 -
b1 J
b1 P
1%
#106000
b1011 '
#110000
0%
#115000
1:
0*
b0 /
b0 E
b0 Y
b1111 <
b1111 >
b1111 C
b1001101 .
b1001101 B
b100110100000000 9
b100110100000000 K
b10 #
b10 -
b10 J
b10 P
1%
#116000
b1100 '
#120000
0%
#125000
b1101 $
b1101 ;
b1101 A
b1101 \
b1101 ^
b110 5
b110 G
b110 S
b1 7
b1 D
b1 M
18
0:
b0 <
b0 >
b0 C
b110 6
b110 N
b110 Q
b110 W
b1010100 .
b1010100 B
b101010000000110 9
b101010000000110 K
b11 #
b11 -
b11 J
b11 P
1%
#126000
b1101 '
#130000
0%
#135000
b1100 $
b1100 ;
b1100 A
b1100 \
b1100 ^
b1 0
b1 ?
b1 [
b1 5
b1 G
b1 S
1,
b1 /
b1 E
b1 Y
b1 <
b1 >
b1 C
b0 7
b0 D
b0 M
08
b1 6
b1 N
b1 Q
b1 W
b1010 .
b1010 B
b101000000001 9
b101000000001 K
b100 #
b100 -
b100 J
b100 P
1%
#136000
b1110 '
#140000
0%
#145000
b0 0
b0 ?
b0 [
b1111 7
b1111 D
b1111 M
18
0,
b0 /
b0 E
b0 Y
b0 <
b0 >
b0 C
b1010011 .
b1010011 B
b1100 $
b1100 ;
b1100 A
b1100 \
b1100 ^
b101001100000001 9
b101001100000001 K
b1100 2
b1100 @
b1100 F
b1100 V
b101 #
b101 -
b101 J
b101 P
b1100 "
b1100 +
b1100 O
b1100 U
b1100 ]
1%
#146000
b1111 '
b1100 &
b11 (
#150000
0%
#155000
b0 $
b0 ;
b0 A
b0 \
b0 ^
b0 5
b0 G
b0 S
1*
b1 /
b1 E
b1 Y
b1001 <
b1001 >
b1001 C
b0 7
b0 D
b0 M
08
b0 6
b0 N
b0 Q
b0 W
b11 .
b11 B
b1100000000 9
b1100000000 K
b1 #
b1 -
b1 J
b1 P
1%
#156000
b10000 '
#160000
0%
#165000
1:
0*
b0 /
b0 E
b0 Y
b1111 <
b1111 >
b1111 C
b1001101 .
b1001101 B
b100110100000000 9
b100110100000000 K
b10 #
b10 -
b10 J
b10 P
1%
#166000
b10001 '
#170000
0%
#175000
b1100 $
b1100 ;
b1100 A
b1100 \
b1100 ^
b110 5
b110 G
b110 S
b1 7
b1 D
b1 M
18
0:
b0 <
b0 >
b0 C
b110 6
b110 N
b110 Q
b110 W
b1010100 .
b1010100 B
b101010000000110 9
b101010000000110 K
b11 #
b11 -
b11 J
b11 P
1%
#176000
b10010 '
#180000
0%
#185000
b1011 $
b1011 ;
b1011 A
b1011 \
b1011 ^
b1 0
b1 ?
b1 [
b1 5
b1 G
b1 S
1,
b1 /
b1 E
b1 Y
b1 <
b1 >
b1 C
b0 7
b0 D
b0 M
08
b1 6
b1 N
b1 Q
b1 W
b1010 .
b1010 B
b101000000001 9
b101000000001 K
b100 #
b100 -
b100 J
b100 P
1%
#186000
b10011 '
#190000
0%
#195000
b0 0
b0 ?
b0 [
b1111 7
b1111 D
b1111 M
18
0,
b0 /
b0 E
b0 Y
b0 <
b0 >
b0 C
b1011 $
b1011 ;
b1011 A
b1011 \
b1011 ^
b1010011 .
b1010011 B
b1011 2
b1011 @
b1011 F
b1011 V
b101001100000001 9
b101001100000001 K
b1011 "
b1011 +
b1011 O
b1011 U
b1011 ]
b101 #
b101 -
b101 J
b101 P
1%
#196000
b1011 &
b100 (
b10100 '
#200000
0%
#205000
b0 $
b0 ;
b0 A
b0 \
b0 ^
b0 5
b0 G
b0 S
1*
b1 /
b1 E
b1 Y
b1001 <
b1001 >
b1001 C
b0 7
b0 D
b0 M
08
b0 6
b0 N
b0 Q
b0 W
b11 .
b11 B
b1100000000 9
b1100000000 K
b1 #
b1 -
b1 J
b1 P
1%
#206000
b10101 '
#210000
0%
#215000
1:
0*
b0 /
b0 E
b0 Y
b1111 <
b1111 >
b1111 C
b1001101 .
b1001101 B
b100110100000000 9
b100110100000000 K
b10 #
b10 -
b10 J
b10 P
1%
#216000
b10110 '
#220000
0%
#225000
b1011 $
b1011 ;
b1011 A
b1011 \
b1011 ^
b110 5
b110 G
b110 S
b1 7
b1 D
b1 M
18
0:
b0 <
b0 >
b0 C
b110 6
b110 N
b110 Q
b110 W
b1010100 .
b1010100 B
b101010000000110 9
b101010000000110 K
b11 #
b11 -
b11 J
b11 P
1%
#226000
b10111 '
#230000
0%
#235000
b1010 $
b1010 ;
b1010 A
b1010 \
b1010 ^
b1 0
b1 ?
b1 [
b1 5
b1 G
b1 S
1,
b1 /
b1 E
b1 Y
b1 <
b1 >
b1 C
b0 7
b0 D
b0 M
08
b1 6
b1 N
b1 Q
b1 W
b1010 .
b1010 B
b101000000001 9
b101000000001 K
b100 #
b100 -
b100 J
b100 P
1%
#236000
b11000 '
#240000
0%
#245000
b0 0
b0 ?
b0 [
b1111 7
b1111 D
b1111 M
18
0,
b0 /
b0 E
b0 Y
b0 <
b0 >
b0 C
b1010011 .
b1010011 B
b1010 $
b1010 ;
b1010 A
b1010 \
b1010 ^
b101001100000001 9
b101001100000001 K
b1010 2
b1010 @
b1010 F
b1010 V
b101 #
b101 -
b101 J
b101 P
b1010 "
b1010 +
b1010 O
b1010 U
b1010 ]
1%
#246000
b11001 '
b1010 &
b101 (
#250000
0%
#255000
b0 $
b0 ;
b0 A
b0 \
b0 ^
b0 5
b0 G
b0 S
1*
b1 /
b1 E
b1 Y
b1001 <
b1001 >
b1001 C
b0 7
b0 D
b0 M
08
b0 6
b0 N
b0 Q
b0 W
b11 .
b11 B
b1100000000 9
b1100000000 K
b1 #
b1 -
b1 J
b1 P
1%
#256000
b11010 '
#260000
0%
#265000
1:
0*
b0 /
b0 E
b0 Y
b1111 <
b1111 >
b1111 C
b1001101 .
b1001101 B
b100110100000000 9
b100110100000000 K
b10 #
b10 -
b10 J
b10 P
1%
#266000
b11011 '
#270000
0%
#275000
b1010 $
b1010 ;
b1010 A
b1010 \
b1010 ^
b110 5
b110 G
b110 S
b1 7
b1 D
b1 M
18
0:
b0 <
b0 >
b0 C
b110 6
b110 N
b110 Q
b110 W
b1010100 .
b1010100 B
b101010000000110 9
b101010000000110 K
b11 #
b11 -
b11 J
b11 P
1%
#276000
b11100 '
#280000
0%
#285000
b1001 $
b1001 ;
b1001 A
b1001 \
b1001 ^
b1 0
b1 ?
b1 [
b1 5
b1 G
b1 S
1,
b1 /
b1 E
b1 Y
b1 <
b1 >
b1 C
b0 7
b0 D
b0 M
08
b1 6
b1 N
b1 Q
b1 W
b1010 .
b1010 B
b101000000001 9
b101000000001 K
b100 #
b100 -
b100 J
b100 P
1%
#286000
b11101 '
#290000
0%
#295000
b0 0
b0 ?
b0 [
b1111 7
b1111 D
b1111 M
18
0,
b0 /
b0 E
b0 Y
b0 <
b0 >
b0 C
b1001 $
b1001 ;
b1001 A
b1001 \
b1001 ^
b1010011 .
b1010011 B
b1001 2
b1001 @
b1001 F
b1001 V
b101001100000001 9
b101001100000001 K
b1001 "
b1001 +
b1001 O
b1001 U
b1001 ]
b101 #
b101 -
b101 J
b101 P
1%
#296000
b1001 &
b110 (
b11110 '
#300000
0%
#305000
b0 $
b0 ;
b0 A
b0 \
b0 ^
b0 5
b0 G
b0 S
1*
b1 /
b1 E
b1 Y
b1001 <
b1001 >
b1001 C
b0 7
b0 D
b0 M
08
b0 6
b0 N
b0 Q
b0 W
b11 .
b11 B
b1100000000 9
b1100000000 K
b1 #
b1 -
b1 J
b1 P
1%
#306000
b11111 '
#310000
0%
#315000
1:
0*
b0 /
b0 E
b0 Y
b1111 <
b1111 >
b1111 C
b1001101 .
b1001101 B
b100110100000000 9
b100110100000000 K
b10 #
b10 -
b10 J
b10 P
1%
#316000
b100000 '
#320000
0%
#325000
b1001 $
b1001 ;
b1001 A
b1001 \
b1001 ^
b110 5
b110 G
b110 S
b1 7
b1 D
b1 M
18
0:
b0 <
b0 >
b0 C
b110 6
b110 N
b110 Q
b110 W
b1010100 .
b1010100 B
b101010000000110 9
b101010000000110 K
b11 #
b11 -
b11 J
b11 P
1%
#326000
b100001 '
#330000
0%
#335000
b1000 $
b1000 ;
b1000 A
b1000 \
b1000 ^
b1 0
b1 ?
b1 [
b1 5
b1 G
b1 S
1,
b1 /
b1 E
b1 Y
b1 <
b1 >
b1 C
b0 7
b0 D
b0 M
08
b1 6
b1 N
b1 Q
b1 W
b1010 .
b1010 B
b101000000001 9
b101000000001 K
b100 #
b100 -
b100 J
b100 P
1%
#336000
b100010 '
#340000
0%
#345000
b0 0
b0 ?
b0 [
b1111 7
b1111 D
b1111 M
18
0,
b0 /
b0 E
b0 Y
b0 <
b0 >
b0 C
b1010011 .
b1010011 B
b1000 $
b1000 ;
b1000 A
b1000 \
b1000 ^
b101001100000001 9
b101001100000001 K
b1000 2
b1000 @
b1000 F
b1000 V
b101 #
b101 -
b101 J
b101 P
b1000 "
b1000 +
b1000 O
b1000 U
b1000 ]
1%
#346000
b100011 '
b1000 &
b111 (
#350000
0%
#355000
b0 $
b0 ;
b0 A
b0 \
b0 ^
b0 5
b0 G
b0 S
1*
b1 /
b1 E
b1 Y
b1001 <
b1001 >
b1001 C
b0 7
b0 D
b0 M
08
b0 6
b0 N
b0 Q
b0 W
b11 .
b11 B
b1100000000 9
b1100000000 K
b1 #
b1 -
b1 J
b1 P
1%
#356000
b100100 '
#360000
0%
#365000
1:
0*
b0 /
b0 E
b0 Y
b1111 <
b1111 >
b1111 C
b1001101 .
b1001101 B
b100110100000000 9
b100110100000000 K
b10 #
b10 -
b10 J
b10 P
1%
#366000
b100101 '
#370000
0%
#375000
b1000 $
b1000 ;
b1000 A
b1000 \
b1000 ^
b110 5
b110 G
b110 S
b1 7
b1 D
b1 M
18
0:
b0 <
b0 >
b0 C
b110 6
b110 N
b110 Q
b110 W
b1010100 .
b1010100 B
b101010000000110 9
b101010000000110 K
b11 #
b11 -
b11 J
b11 P
1%
#376000
b100110 '
#380000
0%
#385000
b111 $
b111 ;
b111 A
b111 \
b111 ^
b1 0
b1 ?
b1 [
b1 5
b1 G
b1 S
1,
b1 /
b1 E
b1 Y
b1 <
b1 >
b1 C
b0 7
b0 D
b0 M
08
b1 6
b1 N
b1 Q
b1 W
b1010 .
b1010 B
b101000000001 9
b101000000001 K
b100 #
b100 -
b100 J
b100 P
1%
#386000
b100111 '
#390000
0%
#395000
b0 0
b0 ?
b0 [
b1111 7
b1111 D
b1111 M
18
0,
b0 /
b0 E
b0 Y
b0 <
b0 >
b0 C
b111 $
b111 ;
b111 A
b111 \
b111 ^
b1010011 .
b1010011 B
b111 2
b111 @
b111 F
b111 V
b101001100000001 9
b101001100000001 K
b111 "
b111 +
b111 O
b111 U
b111 ]
b101 #
b101 -
b101 J
b101 P
1%
#396000
b111 &
b1000 (
b101000 '
#400000
0%
#405000
b0 $
b0 ;
b0 A
b0 \
b0 ^
b0 5
b0 G
b0 S
1*
b1 /
b1 E
b1 Y
b1001 <
b1001 >
b1001 C
b0 7
b0 D
b0 M
08
b0 6
b0 N
b0 Q
b0 W
b11 .
b11 B
b1100000000 9
b1100000000 K
b1 #
b1 -
b1 J
b1 P
1%
#406000
b101001 '
#410000
0%
#415000
1:
0*
b0 /
b0 E
b0 Y
b1111 <
b1111 >
b1111 C
b1001101 .
b1001101 B
b100110100000000 9
b100110100000000 K
b10 #
b10 -
b10 J
b10 P
1%
#416000
b101010 '
#420000
0%
#425000
b111 $
b111 ;
b111 A
b111 \
b111 ^
b110 5
b110 G
b110 S
b1 7
b1 D
b1 M
18
0:
b0 <
b0 >
b0 C
b110 6
b110 N
b110 Q
b110 W
b1010100 .
b1010100 B
b101010000000110 9
b101010000000110 K
b11 #
b11 -
b11 J
b11 P
1%
#426000
b101011 '
#430000
0%
#435000
b110 $
b110 ;
b110 A
b110 \
b110 ^
b1 0
b1 ?
b1 [
b1 5
b1 G
b1 S
1,
b1 /
b1 E
b1 Y
b1 <
b1 >
b1 C
b0 7
b0 D
b0 M
08
b1 6
b1 N
b1 Q
b1 W
b1010 .
b1010 B
b101000000001 9
b101000000001 K
b100 #
b100 -
b100 J
b100 P
1%
#436000
b101100 '
#440000
0%
#445000
b0 0
b0 ?
b0 [
b1111 7
b1111 D
b1111 M
18
0,
b0 /
b0 E
b0 Y
b0 <
b0 >
b0 C
b1010011 .
b1010011 B
b110 $
b110 ;
b110 A
b110 \
b110 ^
b101001100000001 9
b101001100000001 K
b110 2
b110 @
b110 F
b110 V
b101 #
b101 -
b101 J
b101 P
b110 "
b110 +
b110 O
b110 U
b110 ]
1%
#446000
b101101 '
b110 &
b1001 (
#450000
0%
#455000
b0 $
b0 ;
b0 A
b0 \
b0 ^
b0 5
b0 G
b0 S
1*
b1 /
b1 E
b1 Y
b1001 <
b1001 >
b1001 C
b0 7
b0 D
b0 M
08
b0 6
b0 N
b0 Q
b0 W
b11 .
b11 B
b1100000000 9
b1100000000 K
b1 #
b1 -
b1 J
b1 P
1%
#456000
b101110 '
#460000
0%
#465000
1:
0*
b0 /
b0 E
b0 Y
b1111 <
b1111 >
b1111 C
b1001101 .
b1001101 B
b100110100000000 9
b100110100000000 K
b10 #
b10 -
b10 J
b10 P
1%
#466000
b101111 '
#470000
0%
#475000
b110 $
b110 ;
b110 A
b110 \
b110 ^
b110 5
b110 G
b110 S
b1 7
b1 D
b1 M
18
0:
b0 <
b0 >
b0 C
b110 6
b110 N
b110 Q
b110 W
b1010100 .
b1010100 B
b101010000000110 9
b101010000000110 K
b11 #
b11 -
b11 J
b11 P
1%
#476000
b110000 '
#480000
0%
#485000
b101 $
b101 ;
b101 A
b101 \
b101 ^
b1 0
b1 ?
b1 [
b1 5
b1 G
b1 S
1,
b1 /
b1 E
b1 Y
b1 <
b1 >
b1 C
b0 7
b0 D
b0 M
08
b1 6
b1 N
b1 Q
b1 W
b1010 .
b1010 B
b101000000001 9
b101000000001 K
b100 #
b100 -
b100 J
b100 P
1%
#486000
b110001 '
#490000
0%
#495000
b0 0
b0 ?
b0 [
b1111 7
b1111 D
b1111 M
18
0,
b0 /
b0 E
b0 Y
b0 <
b0 >
b0 C
b101 $
b101 ;
b101 A
b101 \
b101 ^
b1010011 .
b1010011 B
b101 2
b101 @
b101 F
b101 V
b101001100000001 9
b101001100000001 K
b101 "
b101 +
b101 O
b101 U
b101 ]
b101 #
b101 -
b101 J
b101 P
1%
#496000
b101 &
b1010 (
b110010 '
#500000
0%
#505000
b0 $
b0 ;
b0 A
b0 \
b0 ^
b0 5
b0 G
b0 S
1*
b1 /
b1 E
b1 Y
b1001 <
b1001 >
b1001 C
b0 7
b0 D
b0 M
08
b0 6
b0 N
b0 Q
b0 W
b11 .
b11 B
b1100000000 9
b1100000000 K
b1 #
b1 -
b1 J
b1 P
1%
#506000
b110011 '
#510000
0%
#515000
1:
0*
b0 /
b0 E
b0 Y
b1111 <
b1111 >
b1111 C
b1001101 .
b1001101 B
b100110100000000 9
b100110100000000 K
b10 #
b10 -
b10 J
b10 P
1%
#516000
b110100 '
#520000
0%
#525000
b101 $
b101 ;
b101 A
b101 \
b101 ^
b110 5
b110 G
b110 S
b1 7
b1 D
b1 M
18
0:
b0 <
b0 >
b0 C
b110 6
b110 N
b110 Q
b110 W
b1010100 .
b1010100 B
b101010000000110 9
b101010000000110 K
b11 #
b11 -
b11 J
b11 P
1%
#526000
b110101 '
#530000
0%
#535000
b100 $
b100 ;
b100 A
b100 \
b100 ^
b1 0
b1 ?
b1 [
b1 5
b1 G
b1 S
1,
b1 /
b1 E
b1 Y
b1 <
b1 >
b1 C
b0 7
b0 D
b0 M
08
b1 6
b1 N
b1 Q
b1 W
b1010 .
b1010 B
b101000000001 9
b101000000001 K
b100 #
b100 -
b100 J
b100 P
1%
#536000
b110110 '
#540000
0%
#545000
b0 0
b0 ?
b0 [
b1111 7
b1111 D
b1111 M
18
0,
b0 /
b0 E
b0 Y
b0 <
b0 >
b0 C
b1010011 .
b1010011 B
b100 $
b100 ;
b100 A
b100 \
b100 ^
b101001100000001 9
b101001100000001 K
b100 2
b100 @
b100 F
b100 V
b101 #
b101 -
b101 J
b101 P
b100 "
b100 +
b100 O
b100 U
b100 ]
1%
#546000
b110111 '
b100 &
b1011 (
#550000
0%
#555000
b0 $
b0 ;
b0 A
b0 \
b0 ^
b0 5
b0 G
b0 S
1*
b1 /
b1 E
b1 Y
b1001 <
b1001 >
b1001 C
b0 7
b0 D
b0 M
08
b0 6
b0 N
b0 Q
b0 W
b11 .
b11 B
b1100000000 9
b1100000000 K
b1 #
b1 -
b1 J
b1 P
1%
#556000
b111000 '
#560000
0%
#565000
1:
0*
b0 /
b0 E
b0 Y
b1111 <
b1111 >
b1111 C
b1001101 .
b1001101 B
b100110100000000 9
b100110100000000 K
b10 #
b10 -
b10 J
b10 P
1%
#566000
b111001 '
#570000
0%
#575000
b100 $
b100 ;
b100 A
b100 \
b100 ^
b110 5
b110 G
b110 S
b1 7
b1 D
b1 M
18
0:
b0 <
b0 >
b0 C
b110 6
b110 N
b110 Q
b110 W
b1010100 .
b1010100 B
b101010000000110 9
b101010000000110 K
b11 #
b11 -
b11 J
b11 P
1%
#576000
b111010 '
#580000
0%
#585000
b11 $
b11 ;
b11 A
b11 \
b11 ^
b1 0
b1 ?
b1 [
b1 5
b1 G
b1 S
1,
b1 /
b1 E
b1 Y
b1 <
b1 >
b1 C
b0 7
b0 D
b0 M
08
b1 6
b1 N
b1 Q
b1 W
b1010 .
b1010 B
b101000000001 9
b101000000001 K
b100 #
b100 -
b100 J
b100 P
1%
#586000
b111011 '
#590000
0%
#595000
b0 0
b0 ?
b0 [
b1111 7
b1111 D
b1111 M
18
0,
b0 /
b0 E
b0 Y
b0 <
b0 >
b0 C
b11 $
b11 ;
b11 A
b11 \
b11 ^
b1010011 .
b1010011 B
b11 2
b11 @
b11 F
b11 V
b101001100000001 9
b101001100000001 K
b11 "
b11 +
b11 O
b11 U
b11 ]
b101 #
b101 -
b101 J
b101 P
1%
#596000
b11 &
b1100 (
b111100 '
#600000
0%
#605000
b0 $
b0 ;
b0 A
b0 \
b0 ^
b0 5
b0 G
b0 S
1*
b1 /
b1 E
b1 Y
b1001 <
b1001 >
b1001 C
b0 7
b0 D
b0 M
08
b0 6
b0 N
b0 Q
b0 W
b11 .
b11 B
b1100000000 9
b1100000000 K
b1 #
b1 -
b1 J
b1 P
1%
#606000
b111101 '
#610000
0%
#615000
1:
0*
b0 /
b0 E
b0 Y
b1111 <
b1111 >
b1111 C
b1001101 .
b1001101 B
b100110100000000 9
b100110100000000 K
b10 #
b10 -
b10 J
b10 P
1%
#616000
b111110 '
#620000
0%
#625000
b11 $
b11 ;
b11 A
b11 \
b11 ^
b110 5
b110 G
b110 S
b1 7
b1 D
b1 M
18
0:
b0 <
b0 >
b0 C
b110 6
b110 N
b110 Q
b110 W
b1010100 .
b1010100 B
b101010000000110 9
b101010000000110 K
b11 #
b11 -
b11 J
b11 P
1%
#626000
b111111 '
#630000
0%
#635000
b10 $
b10 ;
b10 A
b10 \
b10 ^
b1 0
b1 ?
b1 [
b1 5
b1 G
b1 S
1,
b1 /
b1 E
b1 Y
b1 <
b1 >
b1 C
b0 7
b0 D
b0 M
08
b1 6
b1 N
b1 Q
b1 W
b1010 .
b1010 B
b101000000001 9
b101000000001 K
b100 #
b100 -
b100 J
b100 P
1%
#636000
b1000000 '
#640000
0%
#645000
b0 0
b0 ?
b0 [
b1111 7
b1111 D
b1111 M
18
0,
b0 /
b0 E
b0 Y
b0 <
b0 >
b0 C
b1010011 .
b1010011 B
b10 $
b10 ;
b10 A
b10 \
b10 ^
b101001100000001 9
b101001100000001 K
b10 2
b10 @
b10 F
b10 V
b101 #
b101 -
b101 J
b101 P
b10 "
b10 +
b10 O
b10 U
b10 ]
1%
#646000
b1000001 '
b10 &
b1101 (
#650000
0%
#655000
b0 $
b0 ;
b0 A
b0 \
b0 ^
b0 5
b0 G
b0 S
1*
b1 /
b1 E
b1 Y
b1001 <
b1001 >
b1001 C
b0 7
b0 D
b0 M
08
b0 6
b0 N
b0 Q
b0 W
b11 .
b11 B
b1100000000 9
b1100000000 K
b1 #
b1 -
b1 J
b1 P
1%
#656000
b1000010 '
#660000
0%
#665000
1:
0*
b0 /
b0 E
b0 Y
b1111 <
b1111 >
b1111 C
b1001101 .
b1001101 B
b100110100000000 9
b100110100000000 K
b10 #
b10 -
b10 J
b10 P
1%
#666000
b1000011 '
#670000
0%
#675000
b10 $
b10 ;
b10 A
b10 \
b10 ^
b110 5
b110 G
b110 S
b1 7
b1 D
b1 M
18
0:
b0 <
b0 >
b0 C
b110 6
b110 N
b110 Q
b110 W
b1010100 .
b1010100 B
b101010000000110 9
b101010000000110 K
b11 #
b11 -
b11 J
b11 P
1%
#676000
b1000100 '
#680000
0%
